{
  "Main": {
    "name": {
      "type": "StructuredText",
      "config": {
        "single": "heading1, heading2, heading3, heading4, heading5, heading6",
        "label": "Name",
        "placeholder": "Name"
      }
    },
    "description": {
      "type": "StructuredText",
      "config": {
        "multi": "paragraph",
        "label": "description",
        "placeholder": "Enter description here",
        "labels": [
          "grey"
        ]
      }
    },
    "body": {
      "type": "Slices",
      "fieldset": "Slice zone",
      "config": {
        "choices": {
          "skills": {
            "type": "Slice",
            "fieldset": "Skills",
            "description": "Skills",
            "icon": "assignment_turned_in",
            "display": "list",
            "non-repeat": {
              "title": {
                "type": "StructuredText",
                "config": {
                  "single": "heading2",
                  "label": "Title",
                  "placeholder": "Title of skills section"
                }
              }
            },
            "repeat": {
              "category": {
                "type": "StructuredText",
                "config": {
                  "single": "heading4",
                  "label": "category",
                  "placeholder": "Skill category"
                }
              },
              "skills": {
                "type": "StructuredText",
                "config": {
                  "multi": "list-item",
                  "allowTargetBlank": true,
                  "label": "skills",
                  "placeholder": "List of skills"
                }
              },
              "skill": {
                "type": "StructuredText",
                "config": {
                  "multi": "paragraph",
                  "allowTargetBlank": true,
                  "label": "Skill"
                }
              },
              "level": {
                "type": "Number",
                "config": {
                  "label": "Level",
                  "placeholder": "Level on a scale of 1 to 10"
                }
              }
            }
          },
          "work_experience": {
            "type": "Slice",
            "fieldset": "Work Experience",
            "description": "List of past and current Jobs",
            "icon": "work",
            "display": "list",
            "non-repeat": {
              "work_experience_title": {
                "type": "StructuredText",
                "config": {
                  "single": "heading2",
                  "label": "Work Experience Title",
                  "placeholder": "Work Experience Title"
                }
              }
            },
            "repeat": {
              "employer": {
                "type": "StructuredText",
                "config": {
                  "single": "heading3",
                  "label": "Company",
                  "placeholder": "Employer"
                }
              },
              "link_to_company": {
                "type": "Link",
                "config": {
                  "allowTargetBlank": true,
                  "label": "Link to Company",
                  "placeholder": "Link to company"
                }
              },
              "from": {
                "type": "Date",
                "config": {
                  "label": "From",
                  "placeholder": "From date..."
                }
              },
              "until": {
                "type": "Date",
                "config": {
                  "label": "Until",
                  "placeholder": "Until date..."
                }
              },
              "current_job": {
                "type": "Select",
                "config": {
                  "options": [
                    "No",
                    "Yes"
                  ],
                  "default_value": "No",
                  "label": "Current Job"
                }
              },
              "job_title": {
                "type": "StructuredText",
                "config": {
                  "multi": "paragraph",
                  "label": "Job Title",
                  "placeholder": "Job title"
                }
              },
              "responsibilities": {
                "type": "StructuredText",
                "config": {
                  "multi": "paragraph, list-item",
                  "label": "Responsibilities",
                  "placeholder": "Responsibilities"
                }
              }
            }
          },
          "education": {
            "type": "Slice",
            "fieldset": "Education",
            "description": "What have I learned",
            "icon": "school",
            "display": "list",
            "non-repeat": {
              "education_title": {
                "type": "StructuredText",
                "config": {
                  "single": "heading2",
                  "label": "Education Title",
                  "placeholder": "Education Title"
                }
              }
            },
            "repeat": {
              "school": {
                "type": "StructuredText",
                "config": {
                  "single": "heading3",
                  "label": "School",
                  "placeholder": "School name"
                }
              },
              "degree": {
                "type": "StructuredText",
                "config": {
                  "multi": "paragraph, strong, em",
                  "label": "Degree",
                  "placeholder": "Degree"
                }
              },
              "from": {
                "type": "Date",
                "config": {
                  "label": "From",
                  "placeholder": "From date..."
                }
              },
              "until": {
                "type": "Date",
                "config": {
                  "label": "Until",
                  "placeholder": "Until date..."
                }
              }
            }
          }
        }
      }
    }
  }
}